{
  "results": [
    {
      "popularity": 365.799,
      "vote_count": 232,
      "video": false,
      "poster_path": "/udDclJoHjfjb8Ekgsd4FDteOkCU.jpg",
      "id": 475557,
      "adult": false,
      "backdrop_path": "/f5F4cRhQdUbyVbB5lTNCwUzD6BP.jpg",
      "original_language": "en",
      "original_title": "Joker",
      "genre_ids": [
        80,
        18,
        53
      ],
      "title": "Joker",
      "vote_average": 8.5,
      "overview": "During the 1980s, a failed stand-up comedian is driven insane and turns to a life of crime and chaos in Gotham City while becoming an infamous psychopathic crime figure.",
      "release_date": "2019-10-04"
    },
    {
      "popularity": 197.005,
      "vote_count": 316,
      "video": false,
      "poster_path": "/kTQ3J8oTTKofAVLYnds2cHUz9KO.jpg",
      "id": 522938,
      "adult": false,
      "backdrop_path": "/spYx9XQFODuqEVoPpvaJI1ksAVt.jpg",
      "original_language": "en",
      "original_title": "Rambo: Last Blood",
      "genre_ids": [
        28,
        53
      ],
      "title": "Rambo: Last Blood",
      "vote_average": 6.2,
      "overview": "When John Rambo's niece travels to Mexico to find the father that abandoned her and her mother, she finds herself in the grasps of Calle Mexican sex traffickers. When she doesn't return home as expected, John learns she's crossed into Mexico and sets out to get her back and make them pay.",
      "release_date": "2019-09-20"
    },
    {
      "popularity": 108.971,
      "vote_count": 223,
      "video": false,
      "poster_path": "/zBhv8rsLOfpFW2M5b6wW78Uoojs.jpg",
      "id": 540901,
      "adult": false,
      "backdrop_path": "/5GynP6w2OQWSbKnCLHrBIriF4Cw.jpg",
      "original_language": "en",
      "original_title": "Hustlers",
      "genre_ids": [
        35,
        80,
        18
      ],
      "title": "Hustlers",
      "vote_average": 6.2,
      "overview": "A crew of savvy former strip club employees band together to turn the tables on their Wall Street clients.",
      "release_date": "2019-09-13"
    },
    {
      "popularity": 82.057,
      "vote_count": 29,
      "video": false,
      "poster_path": "/uTALxjQU8e1lhmNjP9nnJ3t2pRU.jpg",
      "id": 453405,
      "adult": false,
      "backdrop_path": "/c3F4P2oauA7IQmy4hM0OmRt2W7d.jpg",
      "original_language": "en",
      "original_title": "Gemini Man",
      "genre_ids": [
        28,
        878,
        53
      ],
      "title": "Gemini Man",
      "vote_average": 5.9,
      "overview": "Henry Brogen, an aging assassin tries to get out of the business but finds himself in the ultimate battle: fighting his own clone who is 25 years younger than him and at the peak of his abilities.",
      "release_date": "2019-10-11"
    },
    {
      "popularity": 62.36,
      "vote_count": 47,
      "video": false,
      "poster_path": "/iK0Q7VWxHsXU1uMzpkf3VjAd6yE.jpg",
      "id": 431580,
      "adult": false,
      "backdrop_path": "/tLCDKsXo6D84IVFanoElosSEKdp.jpg",
      "original_language": "en",
      "original_title": "Abominable",
      "genre_ids": [
        12,
        16,
        35,
        10751
      ],
      "title": "Abominable",
      "vote_average": 6.9,
      "overview": "Trekking the 3000-mile journey from Shanghai to the Himalayan snowscapes, a group of misfits encounter a young Yeti named Everest, and they set off to reunite the magical creature with his family on the mountain of his namesake.",
      "release_date": "2019-09-27"
    },
    {
      "popularity": 49.54,
      "vote_count": 22,
      "video": false,
      "poster_path": "/4E2lyUGLEr3yH4q6kJxPkQUhX7n.jpg",
      "id": 568012,
      "adult": false,
      "backdrop_path": "/iGnCzXEx0cFlUbpyAMeHwHWhPhx.jpg",
      "original_language": "ja",
      "original_title": "ワンピーススタンピード",
      "genre_ids": [
        28,
        12,
        16
      ],
      "title": "One Piece: Stampede",
      "vote_average": 8.5,
      "overview": "One Piece: Stampede is a stand-alone film that celebrates the anime's 20th Anniversary and takes place outside the canon of the \"One Piece\" TV series. Monkey D. Luffy and his Straw Hat pirate crew are invited to a massive Pirate Festival that brings many of the most iconic characters from throughout the franchise to participate in competition with the Straw Hats to find Roger's treasure. It also pits the Straw Hats against a new enemy named Bullet, a former member of Roger's crew.",
      "release_date": "2019-10-24"
    },
    {
      "popularity": 34.933,
      "vote_count": 576,
      "video": false,
      "poster_path": "/ndvOjo7Nfk8ULnFLMXthPzhI62L.jpg",
      "id": 535581,
      "adult": false,
      "backdrop_path": "/cXyfAViYly0Lk2CVpEKgYbt9wKQ.jpg",
      "original_language": "en",
      "original_title": "The Dead Don't Die",
      "genre_ids": [
        35,
        27
      ],
      "title": "The Dead Don't Die",
      "vote_average": 5.5,
      "overview": "In a small peaceful town, zombies suddenly rise to terrorize the town. Now three bespectacled police officers and a strange Scottish morgue expert must band together to defeat the undead.",
      "release_date": "2019-06-14"
    },
    {
      "popularity": 53.438,
      "vote_count": 109,
      "video": false,
      "poster_path": "/tAMIXRTHRI7znijZhD6hrR6618J.jpg",
      "id": 441282,
      "adult": false,
      "backdrop_path": "/8knaRrDd1FM1pbSLaViEQSxodi5.jpg",
      "original_language": "en",
      "original_title": "Night Hunter",
      "genre_ids": [
        80,
        9648,
        53
      ],
      "title": "Night Hunter",
      "vote_average": 6,
      "overview": "A police task force traps an online predator, only to discover that the depth of his crimes goes far beyond anything they had anticipated.",
      "release_date": "2019-09-06"
    },
    {
      "popularity": 47.582,
      "vote_count": 752,
      "video": false,
      "poster_path": "/7IiTTgloJzvGI1TAYymCfbfl3vT.jpg",
      "id": 496243,
      "adult": false,
      "backdrop_path": "/ny5aCtglk2kceGAuAdiyqbhBBAf.jpg",
      "original_language": "ko",
      "original_title": "기생충",
      "genre_ids": [
        35,
        18,
        53
      ],
      "title": "Parasite",
      "vote_average": 8.5,
      "overview": "All unemployed, Ki-taek's family takes peculiar interest in the wealthy and glamorous Parks for their livelihood until they get entangled in an unexpected incident.",
      "release_date": "2019-10-11"
    },
    {
      "popularity": 34.578,
      "vote_count": 563,
      "video": false,
      "poster_path": "/m2ttWZ8rMRwIMT7zA48Jo6mTkDS.jpg",
      "id": 459992,
      "adult": false,
      "backdrop_path": "/88r25ghJzVYKq0vaOApqEOZsQlD.jpg",
      "original_language": "en",
      "original_title": "Long Shot",
      "genre_ids": [
        35,
        10749
      ],
      "title": "Long Shot",
      "vote_average": 6.7,
      "overview": "Fred Flarsky is a gifted and free-spirited journalist who has a knack for getting into trouble. Charlotte Field is one of the most influential women in the world -- a smart, sophisticated and accomplished politician. When Fred unexpectedly runs into Charlotte, he soon realizes that she was his former baby sitter and childhood crush. When Charlotte decides to make a run for the presidency, she impulsively hires Fred as her speechwriter -- much to the dismay of her trusted advisers.",
      "release_date": "2019-05-03"
    },
    {
      "popularity": 24.274,
      "vote_count": 19,
      "video": false,
      "poster_path": "/qJ2H94PpXxZgiGGUNkyLSKZzm8u.jpg",
      "id": 523077,
      "adult": false,
      "backdrop_path": "/d2DiNOzhgL36cr9Fm6xjjMuDxyu.jpg",
      "original_language": "en",
      "original_title": "Running with the Devil",
      "genre_ids": [
        80,
        18,
        53
      ],
      "title": "Running with the Devil",
      "vote_average": 4.9,
      "overview": "A leader of a drug cartel sends his two toughest henchmen to investigate why a shipment was botched.",
      "release_date": "2019-09-20"
    },
    {
      "popularity": 29.323,
      "vote_count": 199,
      "video": false,
      "poster_path": "/vOl6shtL0wknjaIs6JdKCpcHvg8.jpg",
      "id": 567609,
      "adult": false,
      "backdrop_path": "/j8uPZSPjKYzHlN2B4NhPQVWWZ5x.jpg",
      "original_language": "en",
      "original_title": "Ready or Not",
      "genre_ids": [
        35,
        27,
        9648,
        53
      ],
      "title": "Ready or Not",
      "vote_average": 7,
      "overview": "A bride's wedding night takes a sinister turn when her eccentric new in-laws force her to take part in a terrifying game.",
      "release_date": "2019-08-21"
    },
    {
      "popularity": 36.675,
      "vote_count": 6,
      "video": false,
      "poster_path": "/8u0QBGUbZcBW59VEAdmeFl9g98N.jpg",
      "id": 504949,
      "adult": false,
      "backdrop_path": "/6Su3nySWCoRzzQL0TivhlFsceVn.jpg",
      "original_language": "en",
      "original_title": "The King",
      "genre_ids": [
        18,
        36,
        10752
      ],
      "title": "The King",
      "vote_average": 9.5,
      "overview": "Hal, wayward prince and heir to the English throne, is crowned King Henry V after his tyrannical father dies. Now the young king must navigate palace politics, the war his father left behind, and the emotional strings of his past life.",
      "release_date": "2019-10-11"
    },
    {
      "popularity": 41.068,
      "vote_count": 1376,
      "video": false,
      "poster_path": "/kreTuJBkUjVWePRfhHZuYfhNE1T.jpg",
      "id": 527641,
      "adult": false,
      "backdrop_path": "/d7wa3VpUpKDQ7GG9EMw8zSJCFoI.jpg",
      "original_language": "en",
      "original_title": "Five Feet Apart",
      "genre_ids": [
        18,
        10749
      ],
      "title": "Five Feet Apart",
      "vote_average": 8.2,
      "overview": "Seventeen-year-old Stella spends most of her time in the hospital as a cystic fibrosis patient. Her life is full of routines, boundaries and self-control -- all of which get put to the test when she meets Will, an impossibly charming teen who has the same illness. There's an instant flirtation, though restrictions dictate that they must maintain a safe distance between them. As their connection intensifies, so does the temptation to throw the rules out the window and embrace that attraction.",
      "release_date": "2019-03-15"
    },
    {
      "popularity": 28.923,
      "vote_count": 7,
      "video": false,
      "poster_path": "/5hIORX639YfDlhXfWJTac6bqWlo.jpg",
      "id": 491283,
      "adult": false,
      "backdrop_path": "/99BHWZowADkJ0yKKGFZs4NfsX8q.jpg",
      "original_language": "en",
      "original_title": "Judy",
      "genre_ids": [
        18,
        36,
        10749
      ],
      "title": "Judy",
      "vote_average": 6.7,
      "overview": "Legendary performer Judy Garland arrives in London in the winter of 1968 to perform a series of sold-out concerts.",
      "release_date": "2019-09-27"
    },
    {
      "popularity": 29.304,
      "vote_count": 166,
      "video": false,
      "poster_path": "/xvYCZ740XvngXK0FNeSNVTJJJ5v.jpg",
      "id": 499701,
      "adult": false,
      "backdrop_path": "/n9lOuPxdnb6YceTjePhOBAJggOm.jpg",
      "original_language": "en",
      "original_title": "Dora and the Lost City of Gold",
      "genre_ids": [
        12,
        35,
        10751
      ],
      "title": "Dora and the Lost City of Gold",
      "vote_average": 6.3,
      "overview": "Dora, a girl who has spent most of her life exploring the jungle with her parents, now must navigate her most dangerous adventure yet: high school. Always the explorer, Dora quickly finds herself leading Boots (her best friend, a monkey), Diego, and a rag tag group of teens on an adventure to save her parents and solve the impossible mystery behind a lost Inca civilization.",
      "release_date": "2019-08-09"
    },
    {
      "popularity": 31.226,
      "vote_count": 0,
      "video": false,
      "poster_path": "/pIcV8XXIIvJCbtPoxF9qHMKdRr2.jpg",
      "id": 338967,
      "adult": false,
      "backdrop_path": "/jCCdt0e8Xe9ttvevD4S3TSMNdH.jpg",
      "original_language": "en",
      "original_title": "Zombieland: Double Tap",
      "genre_ids": [
        28,
        35,
        27
      ],
      "title": "Zombieland: Double Tap",
      "vote_average": 0,
      "overview": "The group will face a new zombie threat as a new breed of zombie has developed. This new super-zombie type is faster, bigger, and stronger than the previous strain of zombies and harder to kill. These super-zombies have started grouping up into a horde going from city to city leaving a path of destruction behind them.",
      "release_date": "2019-10-18"
    },
    {
      "popularity": 10.047,
      "vote_count": 1,
      "video": false,
      "poster_path": "/TR8IfdVQPoVITQda8tDoTxSNlJ.jpg",
      "id": 601493,
      "adult": false,
      "backdrop_path": "/fUcRvBLqHICPRXXQbX2EjI00P9G.jpg",
      "original_language": "zh",
      "original_title": "攀登者",
      "genre_ids": [
        28
      ],
      "title": "The Climbers",
      "vote_average": 8,
      "overview": "May 1960. Mount Everest, the second step under the cliff. The four members of the China Everest Climbing Commando are attacking the most difficult and most difficult \"second step\". This is their fifth assault. The first four failures have cost them too much physical strength - ...finally, the wind and snow stop the gap.",
      "release_date": "2019-09-30"
    },
    {
      "popularity": 6.244,
      "vote_count": 0,
      "video": false,
      "poster_path": "/dUwpZl6QJUFoqkhEcu10Hzbd5Bn.jpg",
      "id": 621268,
      "adult": false,
      "backdrop_path": "/kE1DrWfa82iqnWahWZDAU2wEfIM.jpg",
      "original_language": "es",
      "original_title": "Así habló el cambista",
      "genre_ids": [
        35,
        18
      ],
      "title": "The Moneychanger",
      "vote_average": 0,
      "overview": "Set largely in Montevideo, The Moneychanger stars Daniel Hendler as Humberto Brause, who takes advantage of Uruguay’s poor economy by specializing in offshore money laundering. Spanning the fifties to the seventies, the film follows Humberto as he gets increasingly in over his head with multiple shady book-cooking schemes throughout South America, leading to an ultimate life-or-death decision.",
      "release_date": "2019-09-29"
    },
    {
      "popularity": 37.022,
      "vote_count": 0,
      "video": false,
      "poster_path": "/vloNTScJ3w7jwNwtNGoG8DbTThv.jpg",
      "id": 420809,
      "adult": false,
      "backdrop_path": "/q9mF0HhnKT5deOIRAQSFjhLC8c1.jpg",
      "original_language": "en",
      "original_title": "Maleficent: Mistress of Evil",
      "genre_ids": [
        12,
        14,
        10751
      ],
      "title": "Maleficent: Mistress of Evil",
      "vote_average": 0,
      "overview": "Maleficent and her goddaughter Aurora begin to question the complex family ties that bind them as they are pulled in different directions by impending nuptials, unexpected allies, and dark new forces at play.",
      "release_date": "2019-10-18"
    }
  ],
  "page": 1,
  "total_results": 338,
  "dates": {
    "maximum": "2019-10-29",
    "minimum": "2019-10-10"
  },
  "total_pages": 17
}